{
  "project_info": {
    "project_number": "705780684840",
    "firebase_url": "https://beedriver-41a68.firebaseio.com",
    "project_id": "beedriver-41a68",
    "storage_bucket": "beedriver-41a68.appspot.com"
  },
  "client": [
    {
      "client_info": {
        "mobilesdk_app_id": "1:705780684840:android:5d75ddb13122f38a",
        "android_client_info": {
          "package_name": "com.bluebrand.beedriver"
        }
      },
      "oauth_client": [
        {
          "client_id": "705780684840-0gubquvass5jhnk13kqtc6bue7uiq7fl.apps.googleusercontent.com",
          "client_type": 3
        }
      ],
      "api_key": [
        {
          "current_key": "AIzaSyCBDcm2bITg3cdq4r1ugaWaG_CcwKcEeFQ"
        }
      ],
      "services": {
        "appinvite_service": {
          "other_platform_oauth_client": [
            {
              "client_id": "705780684840-0gubquvass5jhnk13kqtc6bue7uiq7fl.apps.googleusercontent.com",
              "client_type": 3
            }
          ]
        }
      }
    }
  ],
  "configuration_version": "1"
}